%YAML 1.1
%TAG !u! tag:unity3d.com,2011:
--- !u!114 &11400000
MonoBehaviour:
  m_ObjectHideFlags: 0
  m_CorrespondingSourceObject: {fileID: 0}
  m_PrefabInternal: {fileID: 0}
  m_GameObject: {fileID: 0}
  m_Enabled: 1
  m_EditorHideFlags: 0
  m_Script: {fileID: 11500000, guid: c115d3cd60cfe764d9a0adb656b25805, type: 3}
  m_Name: Tier 5 Sword
  m_EditorClassIdentifier: 
  id: 89cec34a5697746489284ccdbc5fd65a
  ItemName: 
  Icon: {fileID: 21300000, guid: f95e454dce3f0fb419b83c51ec30873f, type: 3}
  MaximumStacks: 1
  StrengthBonus: 5
  AgilityBonus: 0
  DefenceBonus: 5
  VitalityBonus: 0
  StrengthPercentBonus: 0
  AgilityPercentBonus: 0
  VitalityPercentBonus: 0
  EquipmentType: 3
  ShotSprite: {fileID: 21300000, guid: e1c4c280e3d80ac47bcada44b017629d, type: 3}
  DamageMinimum: 25
  DamageMaximum: 35
  WeaponSpeed: 7
  WeaponRange: 0.7
