%YAML 1.1
%TAG !u! tag:unity3d.com,2011:
--- !u!114 &11400000
MonoBehaviour:
  m_ObjectHideFlags: 0
  m_CorrespondingSourceObject: {fileID: 0}
  m_PrefabInternal: {fileID: 0}
  m_GameObject: {fileID: 0}
  m_Enabled: 1
  m_EditorHideFlags: 0
  m_Script: {fileID: 11500000, guid: 459c09c19376cf440b39d97673d127ba, type: 3}
  m_Name: Tier 4 Helmet
  m_EditorClassIdentifier: 
  id: eac640f12df487d439f274133e2bd625
  ItemName: Tier 4 Helmet
  Icon: {fileID: 21300000, guid: 84a909affa861014fb6c908497bae263, type: 3}
  MaximumStacks: 1
  StrengthBonus: 2
  AgilityBonus: 3
  DefenceBonus: 7
  VitalityBonus: 3
  StrengthPercentBonus: 0
  AgilityPercentBonus: 0
  VitalityPercentBonus: 0
  EquipmentType: 0
